colspec
…
I read deaths in again, but universally as character, then use pivot_longer() on it.

deaths_character <- read_csv(
  "deaths.csv",
  skip = 4, n_max = 10,
  col_types = cols(.default = col_character())
)

deaths_character_long <- deaths_character %>% 
  rowid_to_column() %>% 
  pivot_longer(-rowid)
deaths_character_long

#> # A tibble: 60 x 3
#>    rowid name          value        
#>    <int> <chr>         <chr>        
#>  1     1 Name          David Bowie  
#>  2     1 Profession    musician     
#>  3     1 Age           69           
#>  4     1 Has kids      TRUE         
#>  5     1 Date of birth 1/8/1947     
#>  6     1 Date of death 1/10/2016    
#>  7     2 Name          Carrie Fisher
#>  8     2 Profession    actor        
#>  9     2 Age           60           
#> 10     2 Has kids      TRUE         
#> #  with 50 more rows
…
